<?xml version="1.0" encoding="utf-8"?>
<!-- Generator: Adobe Illustrator 24.0.3, SVG Export Plug-In . SVG Version: 6.00 Build 0)  -->
<svg version="1.1" id="Calque_1" xmlns="http://www.w3.org/2000/svg" xmlns:xlink="http://www.w3.org/1999/xlink" x="0px" y="0px"
	 viewBox="0 0 24.8 24.2" style="enable-background:new 0 0 24.8 24.2;" xml:space="preserve">
<style type="text/css">
	.st0{fill:#FE4538;}
	.st1{font-family:'IBMPlexMono';}
	.st2{font-size:12px;}
</style>
<title>Fichier 10</title>
<g id="Calque_2_1_">
	<g id="Calque_2-2">
		<g id="Calque_8">
			<path class="st0" d="M23.9,7.7c-1.7,2.9-1.7,2.9,0.9,5c-0.8,0.8-2,1.4-2.3,2.3s0.4,2,0.6,3c-3.6,0.7-3.6,0.7-3.7,3.9
				c-3.5-0.9-3.5-0.9-5,2.1c-0.9-0.6-1.8-1.7-2.8-1.8s-1.9,0.8-2.9,1.3c-1.3-3.2-1.4-3.2-4.8-2.3c0-1.1,0.4-2.4-0.1-3.1
				S2.1,17,1.1,16.5c0.3-0.8,1.1-1.9,1-2.8s-1.3-1.6-2-2.4c3.4-2.5,2.8-1.8,1.6-5c3.5-0.9,3.5-0.9,3.6-4.2C8.7,3.2,8.7,3.2,10.5,0
				c1.7,2.1,3.6,3.2,5.3,0.2c0.7,1.2,0.9,2.4,1.7,2.9s2,0.1,3.2,0.1c0.1,0.8-0.2,2.1,0.3,2.9S22.9,7.2,23.9,7.7z M23,13.2
				c-0.3-1.5-1-2.7-0.8-3.8c0.4-2.2-3-2.4-2.3-4.7c0-0.1-0.3-0.3-0.5-0.5s-0.3,0-0.4-0.1l-4.2-1.8c-1.1,0.7-2.5,0.6-3.4-0.3
				c-0.4-0.2-0.8-0.2-1.2,0C9,2.7,7.8,3.4,6.8,4c-1.1,0.9-2.1,1.7-3,2.5C3.5,6.8,3.1,7.2,3.1,7.3c0.8,1.9-0.5,3-1.2,4.3
				c0.3,1.2,0.6,2.5,0.7,3.8c0,0.4,0.2,0.8,0.4,1.2c0.8,1.1,1.7,2.2,2.5,3.2c1.1,0.7,2.3,1.5,3.5,2.2c0.3,0.1,0.6,0.2,0.9,0.2
				c1.4,0,2.9,0,4.7,0c0.5-1.4,2.2-1.5,3.1-1.4c1.5-1.3,2.5-2.1,3.5-3c0.3-0.3,0.7-0.8,0.6-1C21.1,15,22.1,14,23,13.2z"/>
			<text transform="matrix(1 0 0 1 5.54 16.23)" class="st0 st1 st2">US</text>
		</g>
	</g>
</g>
</svg>
