<?xml version="1.0" encoding="utf-8"?>
<!-- Generator: Adobe Illustrator 24.0.3, SVG Export Plug-In . SVG Version: 6.00 Build 0)  -->
<svg version="1.1" id="Calque_1" xmlns="http://www.w3.org/2000/svg" xmlns:xlink="http://www.w3.org/1999/xlink" x="0px" y="0px"
	 viewBox="0 0 40.2 20" style="enable-background:new 0 0 40.2 20;" xml:space="preserve">
<style type="text/css">
	.st0{fill:none;stroke:#FF9390;stroke-width:1.07;stroke-miterlimit:10;}
	.st1{fill:#FF9390;}
	.st2{font-family:'IBMPlexMono';}
	.st3{font-size:12px;}
</style>
<title>electrohouse</title>
<g id="Calque_2_1_">
	<g id="Calque_2-2">
		<g id="Calque_8">
			<path class="st0" d="M39.7,10.1c0,5.2-8.7,9.4-19.4,9.3S0.5,15.1,0.5,9.9s8.9-9.4,19.7-9.3S39.7,4.9,39.7,10.1z"/>
			<text transform="matrix(1 0 0 1 5.56 14.16)" class="st1 st2 st3">1987</text>
		</g>
	</g>
</g>
</svg>
